%!Adobe-FontList 1.16
%Locale:0x409

%BeginFont
Handler:DirectoryHandler
FontType:TrueType
FontName:Evogria
FamilyName:Evogria
StyleName:Regular
MenuName:Evogria
StyleBits:0
WeightClass:400
WidthClass:5
AngleClass:0
FullName:Evogria
WritingScript:Roman
OutlineFileName:\Evogria.otf
DataFormat:sfntData
FileLength:70736
FileModTime:1408812602
NameArray:0,Mac,4,Evogria
NameArray:0,Win,1,Evogria
%EndFont

%BeginFont
Handler:DirectoryHandler
FontType:Type1
FontName:FedraSansStd-Bold
FamilyName:Fedra Sans Std
StyleName:Bold
MenuName:Fedra Sans Std Bold
StyleBits:0
WeightClass:700
WidthClass:5
AngleClass:0
FullName:Fedra Sans Std Bold
WritingScript:Roman
OutlineFileName:\FedraSansStd Bold.otf
DataFormat:sfntData
UsesStandardEncoding:yes
isCFF:yes
FileLength:148032
FileModTime:1153731124
NameArray:0,Mac,18,Fedra Sans Pro Bold
NameArray:0,Mac,4,Fedra Sans Std Bold
NameArray:0,Win,1,Fedra Sans Std Bold
NameArray:0,Win,16,Fedra Sans Std
%EndFont

%BeginFont
Handler:DirectoryHandler
FontType:Type1
FontName:FedraSansStd-Normal
FamilyName:Fedra Sans Std
StyleName:Normal
MenuName:Fedra Sans Std Normal
StyleBits:0
WeightClass:400
WidthClass:5
AngleClass:0
FullName:Fedra Sans Std Normal
WritingScript:Roman
OutlineFileName:\FedraSansStd Normal.1.otf
DataFormat:sfntData
UsesStandardEncoding:yes
isCFF:yes
FileLength:157148
FileModTime:1153731138
NameArray:0,Mac,4,Fedra Sans Std Normal
NameArray:0,Win,1,Fedra Sans Std Normal
NameArray:0,Win,16,Fedra Sans Std
%EndFont

%BeginFont
Handler:DirectoryHandler
FontType:Type1
FontName:Titillium-Bold
FamilyName:Titillium
StyleName:Bold
MenuName:Titillium Bd
StyleBits:2
WeightClass:700
WidthClass:5
AngleClass:0
FullName:Titillium Bold
WritingScript:Roman
OutlineFileName:\Titillium-Bold.otf
DataFormat:sfntData
UsesStandardEncoding:yes
isCFF:yes
FileLength:55568
FileModTime:1373449470
NameArray:0,Mac,4,Titillium Bold
NameArray:0,Win,1,Titillium Bd
NameArray:0,Win,16,Titillium
%EndFont

